%YAML 1.1
%TAG !u! tag:unity3d.com,2011:
--- !u!1045 &1
EditorBuildSettings:
  m_ObjectHideFlags: 0
  serializedVersion: 2
  m_Scenes:
  - enabled: 1
    path: Assets/Scenes/SampleScene.unity
    guid: 2cda990e2423bbf4892e6590ba056729
  - enabled: 1
    path: Assets/Scenes/Gameover.unity
    guid: 5d17c0a806ebf0b42909ef206c4f79b8
  - enabled: 1
    path: Assets/Scenes/startScene.unity
    guid: 6cacdb557e7640e4d8427f69a5c0db96
  m_configObjects: {}
